Lab 06
…
Question 1

mt_samples %>%
  count(medical_specialty, sort = TRUE)

# A tibble: 40 × 2
   medical_specialty                 n
   <chr>                         <int>
 1 Surgery                        1103
 2 Consult - History and Phy.      516
 3 Cardiovascular / Pulmonary      372
 4 Orthopedic                      355
 5 Radiology                       273
 6 General Medicine                259
 7 Gastroenterology                230
 8 Neurology                       223
 9 SOAP / Chart / Progress Notes   166
10 Obstetrics / Gynecology         160
# ℹ 30 more rows

These categories are not evenly distributed, as there are more than double in some categories.

Question 2

mt_samples %>%
  unnest_tokens(word, transcription)

# A tibble: 2,403,596 × 3
   description                                           medical_specialty word 
   <chr>                                                 <chr>             <chr>
 1 A 23-year-old white female presents with complaint o… Allergy / Immuno… subj…
 2 A 23-year-old white female presents with complaint o… Allergy / Immuno… this 
 3 A 23-year-old white female presents with complaint o… Allergy / Immuno… 23   
 4 A 23-year-old white female presents with complaint o… Allergy / Immuno… year 
 5 A 23-year-old white female presents with complaint o… Allergy / Immuno… old  
 6 A 23-year-old white female presents with complaint o… Allergy / Immuno… white
 7 A 23-year-old white female presents with complaint o… Allergy / Immuno… fema…
 8 A 23-year-old white female presents with complaint o… Allergy / Immuno… pres…
 9 A 23-year-old white female presents with complaint o… Allergy / Immuno… with 
10 A 23-year-old white female presents with complaint o… Allergy / Immuno… comp…
# ℹ 2,403,586 more rows

mt_samples  %>%
  unnest_tokens(word, transcription)%>%
  count(word,sort= TRUE)

# A tibble: 23,647 × 2
   word         n
   <chr>    <int>
 1 the     149888
 2 and      82779
 3 was      71765
 4 of       59205
 5 to       50632
 6 a        42810
 7 with     35815
 8 in       32807
 9 is       26378
10 patient  22065
# ℹ 23,637 more rows
…
Based on the graph, most of the most common words are typical words used in plain language, such as and, in, and of. The only common word that was not this type of word was “patient”. This makes sense because of the context of the transcript.

Question 3

mt_samples %>%
  unnest_tokens(word, transcription) %>%
  anti_join(stop_words) %>%
  count(word, sort = TRUE)

Joining with `by = join_by(word)`

# A tibble: 23,025 × 2
   word          n
   <chr>     <int>
 1 patient   22065
 2 left      11258
 3 history    9509
 4 2          8864
 5 1          8396
 6 normal     7526
 7 procedure  7463
 8 3          6093
 9 pain       5976
10 4          5318
# ℹ 23,015 more rows

Once we remove stop words, we can see more specific words that are more unique to our data set. Since this is a health data set, it makes sense that the important words are more healthcare based.

Question 4

mt_samples %>%
  unnest_ngrams(ngram, transcription, n = 2) %>%
count(ngram, sort = TRUE)

# A tibble: 301,419 × 2
   ngram           n
   <chr>       <int>
 1 the patient 20307
 2 of the      19062
 3 in the      12790
 4 to the      12374
 5 was then     6956
 6 and the      6350
 7 patient was  6293
 8 the right    5509
 9 on the       5241
10 the left     4860
# ℹ 301,409 more rows
…
mt_samples %>%
  unnest_ngrams(ngram, transcription, n = 3) %>%
count(ngram, sort = TRUE)

# A tibble: 655,442 × 2
   ngram                  n
   <chr>              <int>
 1 the patient was     6104
 2 the patient is      3075
 3 as well as          2243
 4 there is no         1678
 5 the operating room  1532
 6 patient is a        1491
 7 prepped and draped  1490
 8 was used to         1480
 9 and draped in       1372
10 at this time        1333
# ℹ 655,432 more rows
…
Tri-grams offer more unique words compared to bi-grams. Bi-grams have many unimportant words that may not be as important as what we see in the tri-gram visualization (ie: more patient, history, and evidence words).

Question 5

mt_samples %>%
  unnest_ngrams(ngram, transcription, n = 2) %>%
  separate(ngram, into = c("word1", "word2"), sep = " ") %>%
  select(word1, word2) %>%
  filter(word1 == "patient") %>%
  count(word2, sort = TRUE)

# A tibble: 588 × 2
   word2         n
   <chr>     <int>
 1 was        6293
 2 is         3332
 3 has        1417
 4 tolerated   994
 5 had         888
 6 will        616
 7 denies      552
 8 and         377
 9 states      363
10 does        334
# ℹ 578 more rows

mt_samples %>%
  unnest_ngrams(ngram, transcription, n = 2) %>%
  separate(ngram, into = c("word1", "word2"), sep = " ") %>%
  select(word1, word2) %>%
  filter(word2 == "patient") %>%
  count(word1, sort = TRUE)

# A tibble: 269 × 2
   word1         n
   <chr>     <int>
 1 the       20307
 2 this        470
 3 history     101
 4 a            67
 5 and          47
 6 procedure    32
 7 female       26
 8 with         25
 9 use          24
10 old          23
# ℹ 259 more rows

Question 6

mt_samples %>%
  unnest_tokens(word, transcription) %>%
  anti_join(stop_words, by = c("word")) %>%
  group_by(medical_specialty) %>%
   count(word, sort = TRUE)

# A tibble: 149,980 × 3
# Groups:   medical_specialty [40]
   medical_specialty          word           n
   <chr>                      <chr>      <int>
 1 Surgery                    patient     4855
 2 Surgery                    left        3263
 3 Surgery                    procedure   3243
 4 Consult - History and Phy. patient     3046
 5 Consult - History and Phy. history     2820
 6 Surgery                    0           2094
 7 Surgery                    1           2038
 8 Surgery                    2           1959
 9 Orthopedic                 patient     1711
10 Surgery                    anesthesia  1687
# ℹ 149,970 more rows

mt_samples %>%
  unnest_tokens(word, transcription) %>%
  anti_join(stop_words, by = c("word")) %>%
  group_by(medical_specialty) %>%
   count(word, sort = TRUE) %>%
  top_n(5, n)

# A tibble: 209 × 3
# Groups:   medical_specialty [40]
   medical_specialty          word          n
   <chr>                      <chr>     <int>
 1 Surgery                    patient    4855
 2 Surgery                    left       3263
 3 Surgery                    procedure  3243
 4 Consult - History and Phy. patient    3046
 5 Consult - History and Phy. history    2820
 6 Surgery                    0          2094
 7 Surgery                    1          2038
 8 Orthopedic                 patient    1711
 9 Cardiovascular / Pulmonary left       1550
10 Cardiovascular / Pulmonary patient    1516
# ℹ 199 more rows
…
Neurosurgery: c5

Most of the common words in each specialty was “patient”.

Question 7

mt_samples %>%
  unnest_ngrams(ngram, transcription, n = 2) %>%
  separate(ngram, into = c("word1", "word2"), sep = " ") %>%
  select(word1, word2) %>%
  filter(word2 == "history") %>%
  count(word1, sort = TRUE)

# A tibble: 567 × 2
   word1        n
   <chr>    <int>
 1 medical   1223
 2 family     941
 3 a          939
 4 social     865
 5 surgical   491
 6 no         473
 7 with       163
 8 any        129
 9 brief      125
10 the        107
# ℹ 557 more rows

mt_samples %>%
  unnest_ngrams(ngram, transcription, n = 2) %>%
  separate(ngram, into = c("word1", "word2"), sep = " ") %>%
  select(word1, word2) %>%
  filter(word1 == "history") %>%
  count(word2, sort = TRUE)

# A tibble: 369 × 2
   word2               n
   <chr>           <int>
 1 of               4537
 2 the               761
 3 she               279
 4 he                227
 5 significant       200
 6 this              200
 7 and               197
 8 1                 181
 9 is                172
10 noncontributory   121
# ℹ 359 more rows
…
